C:\Projects\TurkcellMarketim\TurkcellMarketim.API
--output-path=obj\Release\netcoreapp2.0\
--application-name=TurkcellMarketim.API
--content-root=C:\Projects\TurkcellMarketim\TurkcellMarketim.API
--file=
